Get Started with HydroModels.jl · HydroModels.jl
…
# Extract results into named variables
output_names = vcat(
    HydroModels.get_state_names(exphydro_model),
    HydroModels.get_output_names(exphydro_model)
)
output_df = NamedTuple{Tuple(output_names)}(eachslice(results, dims=1)) |> DataFrame
The types defined in HydroModels.jl all have the callable capability. The exphydro_model of the HydroModel type obtains the calculation result output_matrix through input data, parameters, initial state and operation settings. Its format is consistent with the input data format. The first dimension stores the variable name, and the second dimension stores the time series. The order of the variable name is the state name and output name of exphydro_model. Here we convert it to the DataFrame type and get the result as follows:

10000×10 DataFrame
   Row │ snowpack  soilwater  pet       snowfall  rainfall  melt     evap      baseflow   surfaceflow  flow    
       │ Float64   Float64    Float64   Float64   Float64   Float64  Float64   Float64    Float64      Float64
───────┼─────────────────────────────────────────────────────────────────────────────────────────────────────────
     1 │    0.0      1305.21  1.13779       0.0       3.1       0.0  0.868733  0.0216058          0.0  0.0216058
     2 │    0.0      1308.28  1.51019       0.0       4.24      0.0  1.15577   0.0227406          0.0  0.0227406
     3 │    0.0      1315.03  1.63204       0.0       8.02      0.0  1.25547   0.0254533          0.0  0.0254533
   ⋮   │    ⋮          ⋮         ⋮         ⋮         ⋮         ⋮        ⋮          ⋮           ⋮           ⋮
  9999 │  279.712    1517.91  0.311022      1.84      0.0      -0.0  0.276171  0.753699           0.0  0.753699
 10000 │  279.852    1517.0   0.176836      0.14      0.0      -0.0  0.156927  0.742322           0.0  0.742322
                                                                                                9995 rows omitted
…
